{
  "apn": {
    "passphrase": "cfs247247",
    "key": "ios/apn-production/PushChatKey1.pem",
    "cert": "ios/apn-production/PushChatCert.pem"
  },
  "apn-dev": {
    "passphrase": "cfs247247",
    "key": "ios/apn-development/PushChatKey.pem",
    "cert": "ios/apn-development/PushChatCert.pem"
  },
  "gcm": {
    "apiKey": "AIzaSyAb6RxZ8wzTN5AKYe7vnDsXR5RzcuUEJug",
    "projectNumber": 331620288462
  },
  "production": false,
  "badge": true,
  "sound": true,
  "alert": true,
  "vibrate": true
}
